2;3;1.00136e-05;2
2;3;1.09673e-05;2
2;3;1.00136e-05;2
2;3;8.82149e-06;2
2;3;9.77516e-06;2
2;3;9.05991e-06;2
2;3;1.00136e-05;2
2;3;1.00136e-05;2
2;3;9.05991e-06;2
2;3;1.40667e-05;2
2;3;1.00136e-05;2
2;3;1.09673e-05;2
2;3;1.00136e-05;2
2;3;1.09673e-05;2
2;3;9.05991e-06;2
2;3;9.05991e-06;2
2;3;9.05991e-06;2
2;3;8.82149e-06;2
2;3;9.05991e-06;2
2;3;8.10623e-06;2
2;3;8.82149e-06;2
2;3;9.05991e-06;2
2;3;8.82149e-06;2
2;3;8.82149e-06;2
2;3;9.05991e-06;2
2;3;8.82149e-06;2
2;3;1.00136e-05;2
2;3;1.00136e-05;2
2;3;1.12057e-05;2
2;3;1.00136e-05;2
3;7;1.19209e-05;10
3;7;1.21593e-05;10
3;7;1.19209e-05;10
3;7;1.09673e-05;10
3;7;1.09673e-05;10
3;7;1.21593e-05;10
3;7;1.09673e-05;10
3;7;1.19209e-05;10
3;7;1.09673e-05;10
3;7;1.19209e-05;10
3;7;1.09673e-05;10
3;7;1.09673e-05;10
3;7;1.3113e-05;10
3;7;1.09673e-05;10
3;7;1.28746e-05;10
3;7;1.40667e-05;10
3;7;1.90735e-05;10
3;7;1.3113e-05;10
3;7;1.3113e-05;10
3;7;1.28746e-05;10
3;7;1.21593e-05;10
3;7;1.50204e-05;10
3;7;1.19209e-05;10
3;7;1.19209e-05;10
3;7;1.19209e-05;10
3;7;1.19209e-05;10
3;7;1.19209e-05;10
3;7;1.21593e-05;10
3;7;1.19209e-05;10
3;7;1.40667e-05;10
4;15;1.90735e-05;34
4;15;1.90735e-05;34
4;15;1.90735e-05;34
4;15;1.88351e-05;34
4;15;1.90735e-05;34
4;15;1.88351e-05;34
4;15;1.88351e-05;34
4;15;1.81198e-05;34
4;15;1.78814e-05;34
4;15;1.5974e-05;34
4;15;1.69277e-05;34
4;15;1.71661e-05;34
4;15;1.71661e-05;34
4;15;1.5974e-05;34
4;15;1.50204e-05;34
4;15;1.50204e-05;34
4;15;1.5974e-05;34
4;15;1.50204e-05;34
4;15;1.5974e-05;34
4;15;1.5974e-05;34
4;15;1.5974e-05;34
4;15;1.40667e-05;34
4;15;1.50204e-05;34
4;15;1.40667e-05;34
4;15;1.3113e-05;34
4;15;1.50204e-05;34
4;15;1.40667e-05;34
4;15;1.69277e-05;34
4;15;1.28746e-05;34
4;15;1.28746e-05;34
5;31;2.21729e-05;98
5;31;3.19481e-05;98
5;31;2.00272e-05;98
5;31;2.09808e-05;98
5;31;2.09808e-05;98
5;31;2.09808e-05;98
5;31;2.09808e-05;98
5;31;2.09808e-05;98
5;31;2.12193e-05;98
5;31;2.09808e-05;98
5;31;2.09808e-05;98
5;31;2.21729e-05;98
5;31;2.09808e-05;98
5;31;2.09808e-05;98
5;31;2.09808e-05;98
5;31;1.88351e-05;98
5;31;2.00272e-05;98
5;31;2.00272e-05;98
5;31;2.00272e-05;98
5;31;1.90735e-05;98
5;31;1.90735e-05;98
5;31;2.28882e-05;98
5;31;1.90735e-05;98
5;31;2.00272e-05;98
5;31;1.90735e-05;98
5;31;2.00272e-05;98
5;31;3.09944e-05;98
5;31;2.09808e-05;98
5;31;2.00272e-05;98
5;31;1.97887e-05;98
6;63;3.50475e-05;258
6;63;3.50475e-05;258
6;63;3.50475e-05;258
6;63;7.00951e-05;258
6;63;3.50475e-05;258
6;63;3.69549e-05;258
6;63;3.60012e-05;258
6;63;5.48363e-05;258
6;63;6.10352e-05;258
6;63;5.48363e-05;258
6;63;5.38826e-05;258
6;63;5.07832e-05;258
6;63;5.00679e-05;258
6;63;5.07832e-05;258
6;63;4.69685e-05;258
6;63;4.69685e-05;258
6;63;4.79221e-05;258
6;63;4.3869e-05;258
6;63;5.6982e-05;258
6;63;4.79221e-05;258
6;63;4.3869e-05;258
6;63;4.41074e-05;258
6;63;5.50747e-05;258
6;63;4.31538e-05;258
6;63;4.3869e-05;258
6;63;4.3869e-05;258
6;63;4.41074e-05;258
6;63;4.41074e-05;258
6;63;4.41074e-05;258
6;63;4.1008e-05;258
7;127;8.2016e-05;642
7;127;7.60555e-05;642
7;127;7.70092e-05;642
7;127;7.70092e-05;642
7;127;7.70092e-05;642
7;127;7.70092e-05;642
7;127;7.70092e-05;642
7;127;7.29561e-05;642
7;127;7.20024e-05;642
7;127;7.29561e-05;642
7;127;7.20024e-05;642
7;127;7.29561e-05;642
7;127;7.20024e-05;642
7;127;7.20024e-05;642
7;127;7.60555e-05;642
7;127;7.20024e-05;642
7;127;7.20024e-05;642
7;127;7.20024e-05;642
7;127;7.31945e-05;642
7;127;6.91414e-05;642
7;127;6.91414e-05;642
7;127;6.79493e-05;642
7;127;6.81877e-05;642
7;127;6.79493e-05;642
7;127;6.38962e-05;642
7;127;6.50883e-05;642
7;127;6.58035e-05;642
7;127;6.50883e-05;642
7;127;6.48499e-05;642
7;127;6.48499e-05;642
8;255;0.000174046;1538
8;255;0.000127077;1538
8;255;0.000121117;1538
8;255;0.000121117;1538
8;255;0.000120878;1538
8;255;0.000120878;1538
8;255;0.00012207;1538
8;255;0.000120878;1538
8;255;0.000120878;1538
8;255;0.000120878;1538
8;255;0.000120878;1538
8;255;0.000123978;1538
8;255;0.000120878;1538
8;255;0.000121117;1538
8;255;9.29832e-05;1538
8;255;0.000114918;1538
8;255;0.000115871;1538
8;255;0.000116825;1538
8;255;0.000110149;1538
8;255;0.000110149;1538
8;255;0.000109911;1538
8;255;0.000110149;1538
8;255;0.00012207;1538
8;255;0.000109911;1538
8;255;0.000111103;1538
8;255;0.000110149;1538
8;255;0.000109911;1538
8;255;0.000110865;1538
8;255;0.000110149;1538
8;255;0.000106096;1538
9;511;0.000212193;3586
9;511;0.000211954;3586
9;511;0.000210047;3586
9;511;0.000211;3586
9;511;0.000202894;3586
9;511;0.000200987;3586
9;511;0.000200987;3586
9;511;0.000200987;3586
9;511;0.000225782;3586
9;511;0.000193119;3586
9;511;0.000192881;3586
9;511;0.000192881;3586
9;511;0.000194073;3586
9;511;0.000193834;3586
9;511;0.000193119;3586
9;511;0.000203133;3586
9;511;0.000185966;3586
9;511;0.000185966;3586
9;511;0.000198841;3586
9;511;0.00019002;3586
9;511;0.000187874;3586
9;511;0.000181913;3586
9;511;0.000182152;3586
9;511;0.000181913;3586
9;511;0.000182152;3586
9;511;0.00018096;3586
9;511;0.000183821;3586
9;511;0.000181913;3586
9;511;0.000184059;3586
9;511;0.00018096;3586
10;1023;0.000366926;8194
10;1023;0.00036788;8194
10;1023;0.00036788;8194
10;1023;0.000366926;8194
10;1023;0.000365973;8194
10;1023;0.000366926;8194
10;1023;0.000369072;8194
10;1023;0.000365019;8194
10;1023;0.00036788;8194
10;1023;0.000366926;8194
10;1023;0.000366926;8194
10;1023;0.000368118;8194
10;1023;0.000374079;8194
10;1023;0.00036788;8194
10;1023;0.000368118;8194
10;1023;0.000366926;8194
10;1023;0.000366926;8194
10;1023;0.000367165;8194
10;1023;0.000369072;8194
10;1023;0.00037384;8194
10;1023;0.000368834;8194
10;1023;0.000370026;8194
10;1023;0.000369072;8194
10;1023;0.000368118;8194
10;1023;0.000370979;8194
10;1023;0.000366926;8194
10;1023;0.000380993;8194
10;1023;0.000368118;8194
10;1023;0.000365973;8194
10;1023;0.000366926;8194
11;2047;0.000745058;18434
11;2047;0.000748873;18434
11;2047;0.000746012;18434
11;2047;0.000746965;18434
11;2047;0.000745058;18434
11;2047;0.000745773;18434
11;2047;0.000758171;18434
11;2047;0.000746965;18434
11;2047;0.000746012;18434
11;2047;0.000747204;18434
11;2047;0.000746012;18434
11;2047;0.000754118;18434
11;2047;0.000735044;18434
11;2047;0.000735044;18434
11;2047;0.000733852;18434
11;2047;0.00073719;18434
11;2047;0.000746965;18434
11;2047;0.00073719;18434
11;2047;0.000732899;18434
11;2047;0.000737906;18434
11;2047;0.000734806;18434
11;2047;0.000735044;18434
11;2047;0.000743866;18434
11;2047;0.000732899;18434
11;2047;0.000735044;18434
11;2047;0.000734091;18434
11;2047;0.000735044;18434
11;2047;0.000746012;18434
11;2047;0.000733852;18434
11;2047;0.000735044;18434
12;4095;0.00150204;40962
12;4095;0.00339508;40962
12;4095;0.00150013;40962
12;4095;0.00292015;40962
12;4095;0.00312209;40962
12;4095;0.00150394;40962
12;4095;0.00310183;40962
12;4095;0.00290608;40962
12;4095;0.00149918;40962
12;4095;0.0025301;40962
12;4095;0.00254202;40962
12;4095;0.001894;40962
12;4095;0.00336885;40962
12;4095;0.00251007;40962
12;4095;0.00311303;40962
12;4095;0.00238991;40962
12;4095;0.00287199;40962
12;4095;0.00290513;40962
12;4095;0.00274801;40962
12;4095;0.00266004;40962
12;4095;0.00257492;40962
12;4095;0.00252604;40962
12;4095;0.00203204;40962
12;4095;0.00242591;40962
12;4095;0.00202107;40962
12;4095;0.00237989;40962
12;4095;0.00228119;40962
12;4095;0.00226283;40962
12;4095;0.0022459;40962
12;4095;0.00223589;40962
13;8191;0.00437188;90114
13;8191;0.00414896;90114
13;8191;0.00598717;90114
13;8191;0.00679612;90114
13;8191;0.00395083;90114
13;8191;0.00395703;90114
13;8191;0.00381804;90114
13;8191;0.00376916;90114
13;8191;0.00373912;90114
13;8191;0.00360608;90114
13;8191;0.0035429;90114
13;8191;0.00346208;90114
13;8191;0.0033679;90114
13;8191;0.00346303;90114
13;8191;0.00331998;90114
13;8191;0.00346398;90114
13;8191;0.00332189;90114
13;8191;0.00331903;90114
13;8191;0.003335;90114
13;8191;0.00334215;90114
13;8191;0.00332093;90114
13;8191;0.00332618;90114
13;8191;0.00321698;90114
13;8191;0.00319505;90114
13;8191;0.00321484;90114
13;8191;0.00319314;90114
13;8191;0.003196;90114
13;8191;0.00319695;90114
13;8191;0.00325513;90114
13;8191;0.00324702;90114
14;16383;0.00653505;196610
14;16383;0.006531;196610
14;16383;0.00655699;196610
14;16383;0.00647211;196610
14;16383;0.00627208;196610
14;16383;0.00627995;196610
14;16383;0.00629187;196610
14;16383;0.00630403;196610
14;16383;0.00627804;196610
14;16383;0.00629401;196610
14;16383;0.00631618;196610
14;16383;0.00628185;196610
14;16383;0.00628304;196610
14;16383;0.00630307;196610
14;16383;0.00629592;196610
14;16383;0.00628591;196610
14;16383;0.00629091;196610
14;16383;0.00628805;196610
14;16383;0.00629401;196610
14;16383;0.0062921;196610
14;16383;0.00630593;196610
14;16383;0.00630808;196610
14;16383;0.00629497;196610
14;16383;0.00629902;196610
14;16383;0.00629115;196610
14;16383;0.00628901;196610
14;16383;0.00627804;196610
14;16383;0.0115371;196610
14;16383;0.00628614;196610
14;16383;0.00630283;196610
15;32767;0.012872;425986
15;32767;0.0128841;425986
15;32767;0.0128469;425986
15;32767;0.012871;425986
15;32767;0.0128632;425986
15;32767;0.012867;425986
15;32767;0.0128582;425986
15;32767;0.012856;425986
15;32767;0.0128579;425986
15;32767;0.012852;425986
15;32767;0.012928;425986
15;32767;0.0128529;425986
15;32767;0.0128691;425986
15;32767;0.0128589;425986
15;32767;0.0128529;425986
15;32767;0.012861;425986
15;32767;0.0128641;425986
15;32767;0.012851;425986
15;32767;0.0128531;425986
15;32767;0.0128591;425986
15;32767;0.0128682;425986
15;32767;0.0128539;425986
15;32767;0.0128791;425986
15;32767;0.0128639;425986
15;32767;0.0128942;425986
15;32767;0.012867;425986
15;32767;0.012826;425986
15;32767;0.0128629;425986
15;32767;0.0128331;425986
15;32767;0.012856;425986
16;65535;0.0262601;917506
16;65535;0.0261722;917506
16;65535;0.0262821;917506
16;65535;0.0261879;917506
16;65535;0.0262799;917506
16;65535;0.0261891;917506
16;65535;0.0262599;917506
16;65535;0.0262258;917506
16;65535;0.0261991;917506
16;65535;0.026257;917506
16;65535;0.0262711;917506
16;65535;0.026197;917506
16;65535;0.0262549;917506
16;65535;0.026264;917506
16;65535;0.0261579;917506
16;65535;0.026257;917506
16;65535;0.0262561;917506
16;65535;0.0262601;917506
16;65535;0.0262599;917506
16;65535;0.0261769;917506
16;65535;0.0262711;917506
16;65535;0.026248;917506
16;65535;0.0262351;917506
16;65535;0.0263081;917506
16;65535;0.026288;917506
16;65535;0.0513289;917506
16;65535;0.0413389;917506
16;65535;0.034477;917506
16;65535;0.030149;917506
16;65535;0.027087;917506
17;131071;0.0537629;1966082
17;131071;0.0537219;1966082
17;131071;0.0536962;1966082
17;131071;0.053571;1966082
17;131071;0.0536849;1966082
17;131071;0.0537159;1966082
17;131071;0.0537229;1966082
17;131071;0.0535831;1966082
17;131071;0.0536439;1966082
17;131071;0.053766;1966082
17;131071;0.053647;1966082
17;131071;0.0535131;1966082
17;131071;0.0536809;1966082
17;131071;0.0538309;1966082
17;131071;0.0512879;1966082
17;131071;0.043323;1966082
17;131071;0.041678;1966082
17;131071;0.0417891;1966082
17;131071;0.0418489;1966082
17;131071;0.041867;1966082
17;131071;0.041543;1966082
17;131071;0.041647;1966082
17;131071;0.041868;1966082
17;131071;0.041841;1966082
17;131071;0.0417409;1966082
17;131071;0.0418072;1966082
17;131071;0.041831;1966082
17;131071;0.0418441;1966082
17;131071;0.041698;1966082
17;131071;0.041955;1966082
18;262143;0.0853329;4194306
18;262143;0.143668;4194306
18;262143;0.15646;4194306
18;262143;0.110014;4194306
18;262143;0.109403;4194306
18;262143;0.109762;4194306
18;262143;0.109386;4194306
18;262143;0.109606;4194306
18;262143;0.109356;4194306
18;262143;0.109779;4194306
18;262143;0.109591;4194306
18;262143;0.0956979;4194306
18;262143;0.0850642;4194306
18;262143;0.0852289;4194306
18;262143;0.085216;4194306
18;262143;0.0851579;4194306
18;262143;0.0851591;4194306
18;262143;0.0850651;4194306
18;262143;0.0849261;4194306
18;262143;0.084965;4194306
18;262143;0.0860002;4194306
18;262143;0.0850501;4194306
18;262143;0.085063;4194306
18;262143;0.0849719;4194306
18;262143;0.13307;4194306
18;262143;0.156294;4194306
18;262143;0.109731;4194306
18;262143;0.10954;4194306
18;262143;0.109468;4194306
18;262143;0.109626;4194306
19;524287;0.223623;8912898
19;524287;0.219875;8912898
19;524287;0.175544;8912898
19;524287;0.173659;8912898
19;524287;0.172963;8912898
19;524287;0.173328;8912898
19;524287;0.17359;8912898
19;524287;0.173773;8912898
19;524287;0.173101;8912898
19;524287;0.172519;8912898
19;524287;0.173558;8912898
19;524287;0.172929;8912898
19;524287;0.172933;8912898
19;524287;0.172812;8912898
19;524287;0.173405;8912898
19;524287;0.173404;8912898
19;524287;0.172699;8912898
19;524287;0.173267;8912898
19;524287;0.173891;8912898
19;524287;0.173523;8912898
19;524287;0.173024;8912898
19;524287;0.172989;8912898
19;524287;0.173345;8912898
19;524287;0.173429;8912898
19;524287;0.172925;8912898
19;524287;0.172994;8912898
19;524287;0.173656;8912898
19;524287;0.173201;8912898
19;524287;0.173205;8912898
19;524287;0.173172;8912898
20;1048575;0.35225;18874370
20;1048575;0.352393;18874370
20;1048575;0.352908;18874370
20;1048575;0.352636;18874370
20;1048575;0.352258;18874370
20;1048575;0.352646;18874370
20;1048575;0.352793;18874370
20;1048575;0.351909;18874370
20;1048575;0.351879;18874370
20;1048575;0.352192;18874370
20;1048575;0.353078;18874370
20;1048575;0.352456;18874370
20;1048575;0.352285;18874370
20;1048575;0.352353;18874370
20;1048575;0.352388;18874370
20;1048575;0.35235;18874370
20;1048575;0.351566;18874370
20;1048575;0.352749;18874370
20;1048575;0.35253;18874370
20;1048575;0.352443;18874370
20;1048575;0.352154;18874370
20;1048575;0.353334;18874370
20;1048575;0.35299;18874370
20;1048575;0.352572;18874370
20;1048575;0.352442;18874370
20;1048575;0.352664;18874370
20;1048575;0.352391;18874370
20;1048575;0.352585;18874370
20;1048575;0.352016;18874370
20;1048575;0.352629;18874370
21;2097151;0.719504;39845890
21;2097151;0.720633;39845890
21;2097151;0.7192;39845890
21;2097151;0.720114;39845890
21;2097151;0.718484;39845890
21;2097151;0.720416;39845890
21;2097151;0.718687;39845890
21;2097151;0.720485;39845890
21;2097151;0.718424;39845890
21;2097151;0.719723;39845890
21;2097151;0.718885;39845890
21;2097151;0.721021;39845890
21;2097151;0.720014;39845890
21;2097151;0.720246;39845890
21;2097151;0.719499;39845890
21;2097151;0.720165;39845890
21;2097151;0.718561;39845890
21;2097151;0.719965;39845890
21;2097151;0.718877;39845890
21;2097151;0.720461;39845890
21;2097151;0.719329;39845890
21;2097151;0.720196;39845890
21;2097151;0.719413;39845890
21;2097151;0.720461;39845890
21;2097151;0.719009;39845890
21;2097151;0.720741;39845890
21;2097151;0.719353;39845890
21;2097151;0.719522;39845890
21;2097151;0.719682;39845890
21;2097151;0.721161;39845890
22;4194303;1.47204;83886082
22;4194303;1.47233;83886082
22;4194303;1.47815;83886082
22;4194303;1.47491;83886082
22;4194303;1.47261;83886082
22;4194303;1.47416;83886082
22;4194303;1.47433;83886082
22;4194303;1.47374;83886082
22;4194303;1.47285;83886082
22;4194303;1.47273;83886082
22;4194303;1.47579;83886082
22;4194303;1.47386;83886082
22;4194303;1.47209;83886082
22;4194303;1.47052;83886082
22;4194303;1.47544;83886082
22;4194303;1.47497;83886082
22;4194303;1.47232;83886082
22;4194303;1.47131;83886082
22;4194303;1.47523;83886082
22;4194303;1.47544;83886082
22;4194303;1.46969;83886082
22;4194303;1.47059;83886082
22;4194303;1.47513;83886082
22;4194303;1.47522;83886082
22;4194303;1.47284;83886082
22;4194303;1.47228;83886082
22;4194303;1.47533;83886082
22;4194303;1.47339;83886082
22;4194303;1.47085;83886082
22;4194303;1.47336;83886082
23;8388607;3.01033;176160770
23;8388607;3.01889;176160770
23;8388607;3.02533;176160770
23;8388607;3.01787;176160770
23;8388607;3.01197;176160770
23;8388607;3.0219;176160770
23;8388607;3.02203;176160770
23;8388607;3.01908;176160770
23;8388607;3.01374;176160770
23;8388607;3.01757;176160770
23;8388607;3.01913;176160770
23;8388607;3.01825;176160770
23;8388607;3.01306;176160770
23;8388607;3.01819;176160770
23;8388607;3.01893;176160770
23;8388607;3.01875;176160770
23;8388607;3.01504;176160770
23;8388607;3.01894;176160770
23;8388607;3.01947;176160770
23;8388607;3.01999;176160770
23;8388607;3.01597;176160770
23;8388607;3.02022;176160770
23;8388607;3.01973;176160770
23;8388607;3.02015;176160770
23;8388607;3.0134;176160770
23;8388607;3.01647;176160770
23;8388607;3.01946;176160770
23;8388607;3.01749;176160770
23;8388607;3.01495;176160770
23;8388607;3.0214;176160770
24;16777215;6.15113;369098754
24;16777215;6.16851;369098754
24;16777215;6.14798;369098754
24;16777215;6.15569;369098754
24;16777215;6.14733;369098754
24;16777215;6.16538;369098754
24;16777215;6.16834;369098754
24;16777215;6.15676;369098754
24;16777215;6.15147;369098754
24;16777215;6.15821;369098754
24;16777215;6.15995;369098754
24;16777215;6.16083;369098754
24;16777215;6.15271;369098754
24;16777215;6.16379;369098754
24;16777215;6.16287;369098754
24;16777215;6.1603;369098754
24;16777215;6.14769;369098754
24;16777215;6.15847;369098754
24;16777215;6.14599;369098754
24;16777215;6.15696;369098754
24;16777215;6.15126;369098754
24;16777215;6.16019;369098754
24;16777215;6.15904;369098754
24;16777215;6.15979;369098754
24;16777215;6.1491;369098754
24;16777215;6.16365;369098754
24;16777215;6.14704;369098754
24;16777215;6.15638;369098754
24;16777215;6.14589;369098754
24;16777215;6.16293;369098754
25;33554431;12.5645;771751938
25;33554431;12.5495;771751938
25;33554431;12.5879;771751938
25;33554431;12.5866;771751938
25;33554431;12.5554;771751938
25;33554431;12.5495;771751938
25;33554431;12.5864;771751938
25;33554431;12.5841;771751938
25;33554431;12.549;771751938
25;33554431;12.5558;771751938
25;33554431;12.5878;771751938
25;33554431;12.5765;771751938
25;33554431;12.5496;771751938
25;33554431;12.5652;771751938
25;33554431;12.5753;771751938
25;33554431;12.5774;771751938
25;33554431;12.5562;771751938
25;33554431;12.5556;771751938
25;33554431;12.5798;771751938
25;33554431;12.5781;771751938
25;33554431;12.5601;771751938
25;33554431;12.5531;771751938
25;33554431;12.584;771751938
25;33554431;12.6328;771751938
25;33554431;12.5564;771751938
25;33554431;12.5539;771751938
25;33554431;12.5721;771751938
25;33554431;12.5751;771751938
25;33554431;12.5631;771751938
25;33554431;12.5699;771751938
26;67108863;25.6541;1610612738
26;67108863;25.6896;1610612738
26;67108863;25.6648;1610612738
26;67108863;25.6876;1610612738
26;67108863;25.6069;1610612738
26;67108863;25.7119;1610612738
26;67108863;25.6611;1610612738
26;67108863;25.6438;1610612738
26;67108863;25.6292;1610612738
26;67108863;25.6518;1610612738
26;67108863;25.6639;1610612738
26;67108863;25.6636;1610612738
26;67108863;25.659;1610612738
26;67108863;25.6448;1610612738
26;67108863;25.6673;1610612738
26;67108863;25.6755;1610612738
26;67108863;25.6736;1610612738
26;67108863;25.6995;1610612738
26;67108863;25.6676;1610612738
26;67108863;25.7536;1610612738
26;67108863;25.6626;1610612738
26;67108863;25.6706;1610612738
26;67108863;25.6606;1610612738
26;67108863;25.6695;1610612738
26;67108863;25.6865;1610612738
26;67108863;25.6745;1610612738
26;67108863;25.6591;1610612738
26;67108863;25.6782;1610612738
26;67108863;25.663;1610612738
26;67108863;25.7116;1610612738
27;134217727;52.3868;3355443202
27;134217727;52.3712;3355443202
27;134217727;52.3195;3355443202
27;134217727;52.3275;3355443202
27;134217727;52.367;3355443202
27;134217727;52.3095;3355443202
27;134217727;52.3507;3355443202
27;134217727;52.3418;3355443202
27;134217727;52.3856;3355443202
27;134217727;52.3303;3355443202
27;134217727;52.3953;3355443202
27;134217727;52.3285;3355443202
27;134217727;52.3184;3355443202
27;134217727;52.4146;3355443202
27;134217727;52.3838;3355443202
27;134217727;52.3262;3355443202
27;134217727;52.3436;3355443202
27;134217727;52.3572;3355443202
27;134217727;52.3564;3355443202
27;134217727;52.3753;3355443202
27;134217727;52.749;3355443202
27;134217727;52.4477;3355443202
27;134217727;52.3376;3355443202
27;134217727;52.361;3355443202
27;134217727;52.3507;3355443202
27;134217727;52.3463;3355443202
27;134217727;52.3293;3355443202
27;134217727;52.4042;3355443202
27;134217727;52.3498;3355443202
27;134217727;52.3352;3355443202
28;268435455;106.574;2684354562
28;268435455;106.49;2684354562
28;268435455;106.441;2684354562
28;268435455;106.447;2684354562
28;268435455;106.418;2684354562
28;268435455;106.454;2684354562
28;268435455;106.654;2684354562
28;268435455;106.515;2684354562
28;268435455;106.51;2684354562
28;268435455;106.577;2684354562
28;268435455;106.447;2684354562
28;268435455;107.142;2684354562
28;268435455;106.509;2684354562
28;268435455;106.36;2684354562
28;268435455;106.616;2684354562
28;268435455;106.493;2684354562
28;268435455;106.52;2684354562
28;268435455;106.411;2684354562
28;268435455;106.534;2684354562
28;268435455;106.566;2684354562
28;268435455;106.364;2684354562
28;268435455;106.513;2684354562
28;268435455;106.527;2684354562
28;268435455;106.434;2684354562
28;268435455;106.536;2684354562
28;268435455;107.397;2684354562
28;268435455;106.438;2684354562
28;268435455;106.212;2684354562
28;268435455;106.421;2684354562
28;268435455;106.504;2684354562
29;536870911;217.376;1610612738
29;536870911;218.774;1610612738
29;536870911;217.006;1610612738
29;536870911;220.868;1610612738
29;536870911;217.01;1610612738
29;536870911;217.101;1610612738
29;536870911;217.121;1610612738
29;536870911;217.058;1610612738
29;536870911;218.615;1610612738
29;536870911;217.092;1610612738
29;536870911;217.041;1610612738
29;536870911;216.968;1610612738
29;536870911;216.979;1610612738
29;536870911;217.191;1610612738
29;536870911;217.756;1610612738
29;536870911;218.967;1610612738
29;536870911;217.026;1610612738
29;536870911;217.145;1610612738
29;536870911;216.981;1610612738
29;536870911;217.196;1610612738
29;536870911;217.245;1610612738
29;536870911;218.713;1610612738
29;536870911;217.054;1610612738
29;536870911;216.64;1610612738
29;536870911;217.176;1610612738
29;536870911;217.127;1610612738
29;536870911;217.084;1610612738
29;536870911;216.902;1610612738
29;536870911;216.945;1610612738
29;536870911;217.084;1610612738
30;1073741823;442.319;2
30;1073741823;442.53;2
30;1073741823;442.513;2
30;1073741823;442.188;2
30;1073741823;444.12;2
30;1073741823;442.424;2
30;1073741823;441.681;2
30;1073741823;442.614;2
30;1073741823;442.149;2
30;1073741823;442.338;2
30;1073741823;443.094;2
30;1073741823;442.228;2
30;1073741823;443.812;2
30;1073741823;442.501;2
30;1073741823;442.804;2
30;1073741823;442.129;2
30;1073741823;442.316;2
30;1073741823;442.312;2
30;1073741823;443.541;2
30;1073741823;442.227;2
30;1073741823;442.571;2
30;1073741823;442.205;2
30;1073741823;442.17;2
30;1073741823;443.387;2
30;1073741823;442.288;2
30;1073741823;443.24;2
30;1073741823;442.63;2
30;1073741823;441.598;2
30;1073741823;442.497;2
30;1073741823;445.925;2
31;2147483647;901.347;2147483650
31;2147483647;901.146;2147483650
31;2147483647;905.325;2147483650
31;2147483647;901.098;2147483650
31;2147483647;900.763;2147483650
31;2147483647;900.805;2147483650
31;2147483647;901.241;2147483650
31;2147483647;901.461;2147483650
31;2147483647;900.555;2147483650
31;2147483647;901.291;2147483650
31;2147483647;907.056;2147483650
31;2147483647;901.003;2147483650
31;2147483647;901.176;2147483650
31;2147483647;900.088;2147483650
31;2147483647;901.496;2147483650
31;2147483647;901.444;2147483650
31;2147483647;901.271;2147483650
31;2147483647;901.245;2147483650
31;2147483647;911.306;2147483650
31;2147483647;901.259;2147483650
31;2147483647;900.647;2147483650
31;2147483647;901.174;2147483650
31;2147483647;905.935;2147483650
31;2147483647;900.878;2147483650
31;2147483647;900.793;2147483650
31;2147483647;900.227;2147483650
31;2147483647;900.857;2147483650
31;2147483647;901.486;2147483650
31;2147483647;901.242;2147483650
31;2147483647;901.02;2147483650
32;4294967295;1837.12;2
